<svg width="46" height="28" viewBox="0 0 46 28" fill="none" xmlns="http://www.w3.org/2000/svg">
<path d="M7.30295 6.0986L7.38705 6.3722L7.50992 6.64552L7.65545 6.91339L7.82309 7.17582L7.99647 7.43252L8.18104 7.67805L8.33749 7.92357L8.539 8.24731H8.29272C8.29272 8.24731 21.1541 21.8145 35.0218 20.5253C35.0218 20.5253 40.9043 19.9673 43.812 17.8131C46.457 15.8319 41.8606 16.2838 37.3536 16.1778C37.2753 16.1778 33.5399 18.5386 33.4393 18.5331C33.3386 18.5275 36.8895 16.1722 36.7944 16.1666C34.8372 16.0941 32.964 15.8987 31.7617 15.3183L25.963 17.891L31.0682 14.9668C31.0682 14.9668 27.9314 14.805 23.6034 11.7913L17.6478 13.6051L22.977 11.1383C20.8327 10.1635 18.6176 9.35192 16.3506 8.71057L11.2566 9.03431C11.2566 9.03431 11.6367 8.07416 13.9069 6.56731C15.1427 5.7525 15.1092 5.63548 14.1139 6.19916C13.1186 6.76283 10.6078 8.60457 10.6078 8.60457C10.4745 6.97346 10.6859 5.33238 11.2284 3.78802C12.1343 1.27661 10.8538 4.11753 10.5294 4.85979C10.2091 5.93238 9.96994 7.02725 9.81382 8.13558C9.81382 8.13558 9.12043 6.40544 9.25463 2.35927C9.25463 1.1817 9.04767 2.56583 9.04767 2.56583C9.04767 2.56583 8.57801 4.15658 9.10364 8.05765C9.10364 8.11904 8.8519 7.76171 8.8519 7.76171L8.69545 7.5328L8.54992 7.30962L8.22009 6.84636L7.99074 6.51717L7.87906 6.34985L7.76712 6.15447L7.66091 5.93128L7.55469 5.68003L7.44848 5.37319L7.36466 5.02711L7.26391 5.27264L7.23032 5.54051V5.80838L7.30295 6.0986ZM45.1485 16.8808C45.1485 16.8808 44.5558 19.9505 34.9323 21.0723C30.2855 21.6304 15.674 20.6648 0.576102 0.0544175C0.576102 0.0544175 -0.939196 -0.542807 0.945251 2.21975C0.945251 2.21975 2.69532 5.27269 6.91715 9.37467L7.20247 9.63137L6.68807 9.51419L6.45298 9.44715L6.06718 9.38012L5.72069 9.26866L5.34581 9.17383L4.63018 8.94493L4.27222 8.79968L3.90881 8.66016L3.55659 8.49829L3.20437 8.33669L2.85761 8.14676L2.51085 7.95709L2.81283 8.36449L3.13147 8.71602L3.47277 9.00079L3.82499 9.2406L4.1884 9.45288L4.57421 9.60357L4.96574 9.7262L5.13339 9.77089C5.13339 9.77089 5.13355 9.7987 5.30131 9.80986H5.34035L5.72615 9.88262L6.11769 9.91042H6.49776H6.81094C6.86126 9.91042 6.88355 9.91042 6.87237 9.91042C6.12659 10.5525 5.22697 10.9907 4.26103 11.1827C3.40548 11.3725 0.313374 11.5122 1.50443 11.6517C6.41965 12.2545 7.40944 10.3513 7.40944 10.3513L7.30295 10.5745C6.30337 11.9524 4.93253 13.0189 3.34963 13.6497C4.92652 13.873 7.2638 11.8303 7.57135 11.1996L7.51565 11.3503L7.36466 11.7408L7.26964 11.9196L7.1577 12.115L7.06814 12.2989L6.84452 12.6562L6.73257 12.8235L6.60397 12.9911L6.4923 13.1696L6.3637 13.3372L6.2351 13.5045L6.1065 13.6664L6.26868 13.5658L6.42513 13.4486L6.59278 13.3315L6.7607 13.1977L6.92834 13.0636L7.07933 12.9241L7.22486 12.7679L7.36466 12.6003L7.48753 12.4161L7.58254 12.2153L7.66664 12.0087L7.73927 11.7855L7.77831 11.54H7.86213C7.6105 13.9398 9.01408 16.4345 9.01408 16.4345C9.01408 16.4345 11.4019 20.6761 14.5781 22.4285L13.6721 16.2001L15.428 22.8024C15.428 22.8024 17.5977 25.5929 23.5586 26.9044L21.9648 19.4146L24.8391 27.2279C26.7823 27.8936 28.8569 28.0849 30.8894 27.786L28.5298 21.7421L31.8849 27.8364C34.3344 27.8231 36.7532 27.2903 38.9809 26.2736L34.2614 22.01L39.6463 25.9166C39.6463 25.9166 48.1849 21.1 45.1709 16.8808H45.1485Z" fill="#00BEED"/>
</svg>
